NameError in line 5 of /homes/rwolthuis/dataprocessing2019/Opdrachten/Opdracht3/Snakefile:
name 'HTTP' is not defined
  File "/homes/rwolthuis/dataprocessing2019/Opdrachten/Opdracht3/Snakefile", line 5, in <module>
